48 c7 c7 e7 e9 88 57 c3
00 00 00 00 00 00 00 00
00 00 00 00 00 00 00 00
00 00 00 00 00 00 00 00
00 00 00 00 00 00 00 00
00 00 00 00 00 00 00 00
00 00 00 00 00 00 00 00
78 2c 87 55 55 55 00 00
78 2c 87 55 55 55 00 00
26 1b 40 55 55 55 00 00
